module xc-misc/hankim/saas/zendesk/5933-hong-kong-broadband-network

go 1.20

require github.com/Nerzal/gocloak v1.0.0

require (
	github.com/dgrijalva/jwt-go v3.2.0+incompatible // indirect
	golang.org/x/net v0.0.0-20181011144130-49bb7cea24b1 // indirect
	gopkg.in/resty.v1 v1.10.3 // indirect
)
