{
    "app": "keycloak",
    "client_id": "null",
    "cluster_name": "gc01-cle-int-ves-io",
    "error": "invalid_code",
    "handler": "org.keycloak.events",
    "hostname": "fluentbit-bf2ws",
    "ipaddress": "172.16.180.52",
    "kubernetes": {
      "annotations": {
        "checksum/config": "070714c6be749d9e660a7edf7a319f0b",
        "fluentbit.io/exclude-mysql-check": "true",
        "fluentbit.io/parser-keycloak": "keycloak",
        "kubernetes.io/psp": "eks.privileged",
        "prometheus.ves.io/2nd-container": "mysqld-exporter",
        "prometheus.ves.io/2nd-port": "9104",
        "prometheus.ves.io/2nd-scrape": "true",
        "prometheus.ves.io/2nd-tls": "false",
        "prometheus.ves.io/path": "/auth/realms/master/metrics",
        "prometheus.ves.io/port": "8446",
        "prometheus.ves.io/scrape": "true"
      },
      "container_hash": "volterra.azurecr.io/ves.io/keycloak@sha256:f77ebc823227ac760313960c95a97c3a61b261aee46a98c16108e04233670e46",
      "container_image": "volterra.azurecr.io/ves.io/keycloak@sha256:f77ebc823227ac760313960c95a97c3a61b261aee46a98c16108e04233670e46",
      "container_name": "keycloak",
      "docker_id": "7748ec55cfcd3aaac65ff836ac9de35c71bbb64ba9613f06ea3e2cc55ba39df0",
      "host": "ip-172-16-179-5.us-east-2.compute.internal",
      "labels": {
        "app": "keycloak",
        "component": "application",
        "controller-revision-hash": "keycloak-5b5ddbf5d8",
        "name": "keycloak",
        "statefulset.kubernetes.io/pod-name": "keycloak-2"
      },
      "namespace_name": "ves-system",
      "pod_id": "fef9e0b5-6fdb-4a8c-ad2b-3cd460d02a9c",
      "pod_name": "keycloak-2"
    },
    "log": "\u001b[0m\u001b[33m2023-07-07T01:04:17.065 WARN  [org.keycloak.events] (default task-4418) type=CUSTOM_REQUIRED_ACTION_ERROR, realmId=elementsuite-nbqpkxex, clientId=null, userId=null, ipAddress=172.16.180.52, error=invalid_code\n",
    "message": "\u001b[0m\u001b[33m2023-07-07T01:04:17.065 WARN  [org.keycloak.events] (default task-4418) type=CUSTOM_REQUIRED_ACTION_ERROR, realmId=elementsuite-nbqpkxex, clientId=null, userId=null, ipAddress=172.16.180.52, error=invalid_code\n",
    "path": "/",
    "realm_id": "elementsuite-nbqpkxex",
    "severity": "warning",
    "site": "gc01-cle",
    "stream": "stdout",
    "tag": "kube.app.keycloak.keycloak",
    "task": "default task-4418",
    "tenant": "ves-io",
    "time": "2023-07-07T01:04:17.065",
    "type": "CUSTOM_REQUIRED_ACTION_ERROR",
    "user_id": "null"
  }